Circuito_AutoWin/controleAutomatico/simulation/qsim/controleAutomatico.msim.vcd
$comment
	File created using the following command:
		vcd file controleAutomatico.msim.vcd -direction
$end
$date
	Wed Jun 14 16:04:53 2023
$end
$version
	ModelSim Version 2020.1
$end
$timescale
	1ps
$end

$scope module controleAutomatico_vlg_vec_tst $end
$var reg 1 ! CFG $end
$var reg 1 " clk $end
$var reg 1 # FA $end
$var reg 1 $ FF $end
$var reg 5 % HR_ATUAL [4:0] $end
$var reg 1 & ICHA $end
$var reg 1 ' ICHF $end
$var reg 1 ( ICMA $end
$var reg 1 ) ICMF $end
$var reg 6 * MIN_ATUAL [5:0] $end
$var wire 1 + M $end
$var wire 1 , SM $end

$scope module i1 $end
$var wire 1 - gnd $end
$var wire 1 . vcc $end
$var wire 1 / unknown $end
$var tri1 1 0 devclrn $end
$var tri1 1 1 devpor $end
$var tri1 1 2 devoe $end
$var wire 1 3 M~output_o $end
$var wire 1 4 SM~output_o $end
$var wire 1 5 clk~input_o $end
$var wire 1 6 clk~inputclkctrl_outclk $end
$var wire 1 7 MIN_ATUAL[0]~input_o $end
$var wire 1 8 MIN_ATUAL[1]~input_o $end
$var wire 1 9 ICMA~input_o $end
$var wire 1 : CFG~input_o $end
$var wire 1 ; inst12|inst~combout $end
$var wire 1 < inst12|inst~clkctrl_outclk $end
$var wire 1 = inst12|CONTADOR_MIN_A|auto_generated|counter_comb_bita0~combout $end
$var wire 1 > ~GND~combout $end
$var wire 1 ? inst12|CONTADOR_MIN_A|auto_generated|counter_comb_bita1~COUT $end
$var wire 1 @ inst12|CONTADOR_MIN_A|auto_generated|counter_comb_bita2~combout $end
$var wire 1 A inst12|CONTADOR_MIN_A|auto_generated|counter_comb_bita2~COUT $end
$var wire 1 B inst12|CONTADOR_MIN_A|auto_generated|counter_comb_bita3~combout $end
$var wire 1 C inst12|CONTADOR_MIN_A|auto_generated|counter_comb_bita3~COUT $end
$var wire 1 D inst12|CONTADOR_MIN_A|auto_generated|counter_comb_bita4~combout $end
$var wire 1 E inst12|CONTADOR_MIN_A|auto_generated|counter_comb_bita4~COUT $end
$var wire 1 F inst12|CONTADOR_MIN_A|auto_generated|counter_comb_bita5~combout $end
$var wire 1 G inst12|CONTADOR_MIN_A|auto_generated|counter_comb_bita5~COUT $end
$var wire 1 H inst12|CONTADOR_MIN_A|auto_generated|counter_comb_bita5~0_combout $end
$var wire 1 I inst12|CONTADOR_MIN_A|auto_generated|cmpr1|aneb_result_wire[0]~0_combout $end
$var wire 1 J inst12|CONTADOR_MIN_A|auto_generated|cout_actual~combout $end
$var wire 1 K inst12|CONTADOR_MIN_A|auto_generated|counter_comb_bita0~COUT $end
$var wire 1 L inst12|CONTADOR_MIN_A|auto_generated|counter_comb_bita1~combout $end
$var wire 1 M inst12|inst24|auto_generated|aeb_output_dffe_d_wire0w[0]~2_combout $end
$var wire 1 N MIN_ATUAL[3]~input_o $end
$var wire 1 O MIN_ATUAL[2]~input_o $end
$var wire 1 P inst12|inst24|auto_generated|aeb_output_dffe_d_wire0w[0]~1_combout $end
$var wire 1 Q MIN_ATUAL[4]~input_o $end
$var wire 1 R MIN_ATUAL[5]~input_o $end
$var wire 1 S inst12|inst24|auto_generated|aeb_output_dffe_d_wire0w[0]~0_combout $end
$var wire 1 T inst12|inst24|auto_generated|aeb_output_dffe_d_wire0w[0]~3_combout $end
$var wire 1 U HR_ATUAL[1]~input_o $end
$var wire 1 V ICHA~input_o $end
$var wire 1 W inst12|inst15~combout $end
$var wire 1 X inst12|inst15~clkctrl_outclk $end
$var wire 1 Y inst12|CONTADOR_HR_A|auto_generated|counter_comb_bita0~combout $end
$var wire 1 Z inst12|CONTADOR_HR_A|auto_generated|counter_comb_bita1~COUT $end
$var wire 1 [ inst12|CONTADOR_HR_A|auto_generated|counter_comb_bita2~combout $end
$var wire 1 \ inst12|CONTADOR_HR_A|auto_generated|counter_comb_bita2~COUT $end
$var wire 1 ] inst12|CONTADOR_HR_A|auto_generated|counter_comb_bita3~combout $end
$var wire 1 ^ inst12|CONTADOR_HR_A|auto_generated|counter_comb_bita3~COUT $end
$var wire 1 _ inst12|CONTADOR_HR_A|auto_generated|counter_comb_bita4~combout $end
$var wire 1 ` inst12|CONTADOR_HR_A|auto_generated|counter_comb_bita4~COUT $end
$var wire 1 a inst12|CONTADOR_HR_A|auto_generated|counter_comb_bita4~0_combout $end
$var wire 1 b inst12|CONTADOR_HR_A|auto_generated|cmpr1|aneb_result_wire[0]~0_combout $end
$var wire 1 c inst12|CONTADOR_HR_A|auto_generated|cout_actual~combout $end
$var wire 1 d inst12|CONTADOR_HR_A|auto_generated|counter_comb_bita0~COUT $end
$var wire 1 e inst12|CONTADOR_HR_A|auto_generated|counter_comb_bita1~combout $end
$var wire 1 f HR_ATUAL[3]~input_o $end
$var wire 1 g HR_ATUAL[0]~input_o $end
$var wire 1 h inst12|inst23|auto_generated|aeb_output_dffe_d_wire0w[0]~1_combout $end
$var wire 1 i HR_ATUAL[4]~input_o $end
$var wire 1 j HR_ATUAL[2]~input_o $end
$var wire 1 k inst12|inst23|auto_generated|aeb_output_dffe_d_wire0w[0]~0_combout $end
$var wire 1 l inst12|inst23|auto_generated|aeb_output_dffe_d_wire0w[0]~2_combout $end
$var wire 1 m FF~input_o $end
$var wire 1 n ICMF~input_o $end
$var wire 1 o inst12|inst17~combout $end
$var wire 1 p inst12|inst17~clkctrl_outclk $end
$var wire 1 q inst12|CONTADOR_MIN_F|auto_generated|counter_comb_bita0~combout $end
$var wire 1 r inst12|CONTADOR_MIN_F|auto_generated|counter_comb_bita3~COUT $end
$var wire 1 s inst12|CONTADOR_MIN_F|auto_generated|counter_comb_bita4~combout $end
$var wire 1 t inst12|CONTADOR_MIN_F|auto_generated|counter_comb_bita4~COUT $end
$var wire 1 u inst12|CONTADOR_MIN_F|auto_generated|counter_comb_bita5~combout $end
$var wire 1 v inst12|CONTADOR_MIN_F|auto_generated|cmpr1|aneb_result_wire[0]~0_combout $end
$var wire 1 w inst12|CONTADOR_MIN_F|auto_generated|counter_comb_bita5~COUT $end
$var wire 1 x inst12|CONTADOR_MIN_F|auto_generated|counter_comb_bita5~0_combout $end
$var wire 1 y inst12|CONTADOR_MIN_F|auto_generated|cout_actual~combout $end
$var wire 1 z inst12|CONTADOR_MIN_F|auto_generated|counter_comb_bita0~COUT $end
$var wire 1 { inst12|CONTADOR_MIN_F|auto_generated|counter_comb_bita1~combout $end
$var wire 1 | inst12|CONTADOR_MIN_F|auto_generated|counter_comb_bita1~COUT $end
$var wire 1 } inst12|CONTADOR_MIN_F|auto_generated|counter_comb_bita2~combout $end
$var wire 1 ~ inst12|CONTADOR_MIN_F|auto_generated|counter_comb_bita2~COUT $end
$var wire 1 !! inst12|CONTADOR_MIN_F|auto_generated|counter_comb_bita3~combout $end
$var wire 1 "! inst12|inst61|auto_generated|aeb_output_dffe_d_wire0w[0]~1_combout $end
$var wire 1 #! inst12|inst61|auto_generated|aeb_output_dffe_d_wire0w[0]~2_combout $end
$var wire 1 $! inst12|inst61|auto_generated|aeb_output_dffe_d_wire0w[0]~0_combout $end
$var wire 1 %! inst12|inst61|auto_generated|aeb_output_dffe_d_wire0w[0]~3_combout $end
$var wire 1 &! inst21~0_combout $end
$var wire 1 '! ICHF~input_o $end
$var wire 1 (! inst12|inst18~combout $end
$var wire 1 )! inst12|inst18~clkctrl_outclk $end
$var wire 1 *! inst12|CONTADOR_HF|auto_generated|counter_comb_bita0~combout $end
$var wire 1 +! inst12|CONTADOR_HF|auto_generated|counter_comb_bita1~COUT $end
$var wire 1 ,! inst12|CONTADOR_HF|auto_generated|counter_comb_bita2~combout $end
$var wire 1 -! inst12|CONTADOR_HF|auto_generated|counter_comb_bita2~COUT $end
$var wire 1 .! inst12|CONTADOR_HF|auto_generated|counter_comb_bita3~combout $end
$var wire 1 /! inst12|CONTADOR_HF|auto_generated|counter_comb_bita3~COUT $end
$var wire 1 0! inst12|CONTADOR_HF|auto_generated|counter_comb_bita4~combout $end
$var wire 1 1! inst12|CONTADOR_HF|auto_generated|counter_comb_bita4~COUT $end
$var wire 1 2! inst12|CONTADOR_HF|auto_generated|counter_comb_bita4~0_combout $end
$var wire 1 3! inst12|CONTADOR_HF|auto_generated|cmpr1|aneb_result_wire[0]~0_combout $end
$var wire 1 4! inst12|CONTADOR_HF|auto_generated|cout_actual~combout $end
$var wire 1 5! inst12|CONTADOR_HF|auto_generated|counter_comb_bita0~COUT $end
$var wire 1 6! inst12|CONTADOR_HF|auto_generated|counter_comb_bita1~combout $end
$var wire 1 7! inst12|inst63|auto_generated|aeb_output_dffe_d_wire0w[0]~0_combout $end
$var wire 1 8! inst12|inst63|auto_generated|aeb_output_dffe_d_wire0w[0]~1_combout $end
$var wire 1 9! inst12|inst63|auto_generated|aeb_output_dffe_d_wire0w[0]~2_combout $end
$var wire 1 :! inst21~1_combout $end
$var wire 1 ;! inst12|inst49~combout $end
$var wire 1 <! FA~input_o $end
$var wire 1 =! inst10~4_combout $end
$var wire 1 >! inst5~0_combout $end
$var wire 1 ?! ffSentidoMotor~q $end
$var wire 1 @! inst17~0_combout $end
$var wire 1 A! inst12|inst42~combout $end
$var wire 1 B! inst17~1_combout $end
$var wire 1 C! inst17~2_combout $end
$var wire 1 D! ffMotor~q $end
$var wire 1 E! inst12|CONTADOR_HR_A|auto_generated|counter_reg_bit [4] $end
$var wire 1 F! inst12|CONTADOR_HR_A|auto_generated|counter_reg_bit [3] $end
$var wire 1 G! inst12|CONTADOR_HR_A|auto_generated|counter_reg_bit [2] $end
$var wire 1 H! inst12|CONTADOR_HR_A|auto_generated|counter_reg_bit [1] $end
$var wire 1 I! inst12|CONTADOR_HR_A|auto_generated|counter_reg_bit [0] $end
$var wire 1 J! inst12|inst63|auto_generated|aeb_output_dffe0a [0] $end
$var wire 1 K! inst12|CONTADOR_MIN_A|auto_generated|counter_reg_bit [5] $end
$var wire 1 L! inst12|CONTADOR_MIN_A|auto_generated|counter_reg_bit [4] $end
$var wire 1 M! inst12|CONTADOR_MIN_A|auto_generated|counter_reg_bit [3] $end
$var wire 1 N! inst12|CONTADOR_MIN_A|auto_generated|counter_reg_bit [2] $end
$var wire 1 O! inst12|CONTADOR_MIN_A|auto_generated|counter_reg_bit [1] $end
$var wire 1 P! inst12|CONTADOR_MIN_A|auto_generated|counter_reg_bit [0] $end
$var wire 1 Q! inst12|CONTADOR_HF|auto_generated|counter_reg_bit [4] $end
$var wire 1 R! inst12|CONTADOR_HF|auto_generated|counter_reg_bit [3] $end
$var wire 1 S! inst12|CONTADOR_HF|auto_generated|counter_reg_bit [2] $end
$var wire 1 T! inst12|CONTADOR_HF|auto_generated|counter_reg_bit [1] $end
$var wire 1 U! inst12|CONTADOR_HF|auto_generated|counter_reg_bit [0] $end
$var wire 1 V! inst12|CONTADOR_MIN_F|auto_generated|counter_reg_bit [5] $end
$var wire 1 W! inst12|CONTADOR_MIN_F|auto_generated|counter_reg_bit [4] $end
$var wire 1 X! inst12|CONTADOR_MIN_F|auto_generated|counter_reg_bit [3] $end
$var wire 1 Y! inst12|CONTADOR_MIN_F|auto_generated|counter_reg_bit [2] $end
$var wire 1 Z! inst12|CONTADOR_MIN_F|auto_generated|counter_reg_bit [1] $end
$var wire 1 [! inst12|CONTADOR_MIN_F|auto_generated|counter_reg_bit [0] $end
$var wire 1 \! inst12|inst23|auto_generated|aeb_output_dffe0a [0] $end
$var wire 1 ]! inst12|inst24|auto_generated|aeb_output_dffe0a [0] $end
$var wire 1 ^! inst12|inst61|auto_generated|aeb_output_dffe0a [0] $end
$upscope $end
$upscope $end
$enddefinitions $end
#0
$dumpvars
1!
0"
0#
0$
b1110 %
0&
0'
0(
0)
b100000 *
0+
0,
0-
1.
x/
10
11
12
03
04
05
06
07
08
09
1:
0;
0<
1=
0>
1?
0@
0A
0B
1C
0D
0E
0F
1G
0H
0I
0J
0K
0L
0M
0N
0O
0P
0Q
1R
1S
0T
1U
0V
0W
0X
1Y
1Z
0[
0\
0]
1^
0_
0`
0a
0b
0c
0d
0e
1f
0g
1h
0i
1j
1k
0l
0m
0n
0o
0p
1q
1r
0s
0t
0u
0v
1w
0x
0y
0z
0{
1|
0}
0~
0!!
0"!
0#!
1$!
0%!
0&!
0'!
0(!
0)!
1*!
1+!
0,!
0-!
0.!
1/!
00!
01!
02!
03!
04!
05!
06!
17!
18!
09!
0:!
0;!
0<!
0=!
0>!
0?!
1@!
0A!
0B!
0C!
0D!
0I!
0H!
0G!
0F!
0E!
0J!
0P!
0O!
0N!
0M!
0L!
0K!
0U!
0T!
0S!
0R!
0Q!
0[!
0Z!
0Y!
0X!
0W!
0V!
0\!
0]!
0^!
$end
#5000
1"
1&
1(
1'
1)
15
1V
19
1'!
1n
16
1W
1;
1(!
1o
1p
1)!
1<
1X
1[!
1U!
1P!
1I!
1#!
1z
15!
1M
1K
1d
0q
0*!
0=
0Y
1{
16!
1L
1e
#10000
0"
0&
0(
0'
0)
05
0V
09
0'!
0n
06
0W
0;
0(!
0o
0p
0)!
0<
0X
#15000
1"
1&
1(
1'
1)
15
1V
19
1'!
1n
16
1W
1;
1(!
1o
1p
1)!
1<
1X
1Z!
0[!
1T!
0U!
1O!
0P!
1H!
0I!
0|
0z
0+!
05!
0?
0K
0Z
0d
0{
1q
06!
1*!
0L
1=
0e
1Y
1|
1+!
1?
1Z
1}
1{
1,!
16!
1@
1L
1[
1e
0}
0,!
0@
0[
#20000
0"
0&
0(
0'
0)
05
0V
09
0'!
0n
06
0W
0;
0(!
0o
0p
0)!
0<
0X
#25000
1"
1&
1(
1'
1)
15
1V
19
1'!
1n
16
1W
1;
1(!
1o
1p
1)!
1<
1X
1[!
1U!
1P!
1I!
1z
15!
1K
1d
0q
0*!
0=
0Y
0|
0+!
0?
0Z
0{
06!
0L
0e
1}
1,!
1@
1[
#30000
0"
0&
0(
0'
0)
05
0V
09
0'!
0n
06
0W
0;
0(!
0o
0p
0)!
0<
0X
#35000
1"
1&
1(
1'
1)
15
1V
19
1'!
1n
16
1W
1;
1(!
1o
1p
1)!
1<
1X
1Y!
0Z!
0[!
0T!
0U!
1S!
0O!
0P!
1N!
0H!
0I!
1G!
1"!
1~
0#!
1|
0z
1+!
05!
07!
1-!
0M
1?
0K
1P
1A
1Z
0d
0k
1\
0}
1{
1q
16!
1*!
0,!
1L
1=
0@
1e
1Y
0[
0~
0-!
0A
0\
1!!
1}
0{
1,!
06!
1.!
1@
0L
1B
1[
0e
1]
0!!
0.!
0B
0]
#40000
0"
0&
0(
0'
0)
05
0V
09
0'!
0n
06
0W
0;
0(!
0o
0p
0)!
0<
0X
#45000
1"
1&
1(
1'
1)
15
1V
19
1'!
1n
16
1W
1;
1(!
1o
1p
1)!
1<
1X
1[!
1U!
1P!
1I!
1#!
1z
15!
1M
1K
1d
0q
0*!
0=
0Y
1{
16!
1L
1e
#50000
0"
0&
0(
0'
0)
05
0V
09
0'!
0n
06
0W
0;
0(!
0o
0p
0)!
0<
0X
#55000
1"
1&
1(
1'
1)
15
1V
19
1'!
1n
16
1W
1;
1(!
1o
1p
1)!
1<
1X
1Z!
0[!
1T!
0U!
1O!
0P!
1H!
0I!
0|
0z
0+!
05!
0?
0K
0Z
0d
0{
1q
06!
1*!
0L
1=
0e
1Y
1~
1|
1-!
1+!
1A
1?
1\
1Z
0}
1{
0,!
16!
0@
1L
0[
1e
0~
0-!
0A
0\
1!!
1}
1.!
1,!
1B
1@
1]
1[
0!!
0.!
0B
0]
#60000
0"
0&
0(
0'
0)
05
0V
09
0'!
0n
06
0W
0;
0(!
0o
0p
0)!
0<
0X
#65000
1"
1&
1(
1'
1)
15
1V
19
1'!
1n
16
1W
1;
1(!
1o
1p
1)!
1<
1X
1[!
1U!
1P!
1I!
1z
15!
1K
1d
0q
0*!
0=
0Y
0|
0+!
0?
0Z
0{
06!
0L
0e
1~
1-!
1A
1\
0}
0,!
0@
0[
1!!
1.!
1B
1]
#70000
0"
0&
0(
0'
0)
05
0V
09
0'!
0n
06
0W
0;
0(!
0o
0p
0)!
0<
0X
#75000
1"
1&
1(
1'
1)
15
1V
19
1'!
1n
16
1W
1;
1(!
1o
1p
1)!
1<
1X
1X!
0Y!
0Z!
0[!
0T!
0U!
1R!
0S!
0O!
0P!
1M!
0N!
0H!
0I!
1F!
0G!
0r
0~
0#!
1|
0z
1+!
08!
05!
0/!
17!
0-!
0M
1?
0K
0C
0A
1Z
0h
0d
0^
1k
0\
0!!
1}
1{
1q
16!
1*!
0.!
1,!
1L
1=
0B
1@
1e
1Y
0]
1[
1r
1/!
1C
1^
1s
1!!
0}
0{
0,!
06!
10!
1.!
0@
0L
1D
1B
0[
0e
1_
1]
0s
00!
0D
0_
#80000
0"
0&
0(
0'
0)
05
0V
09
0'!
0n
06
0W
0;
0(!
0o
0p
0)!
0<
0X
#85000
1"
1&
1(
1'
1)
15
1V
19
1'!
1n
16
1W
1;
1(!
1o
1p
1)!
1<
1X
1[!
1U!
1P!
1I!
1#!
1z
18!
15!
1M
1K
1h
1d
0q
0*!
0=
0Y
1{
16!
1L
1e
#90000
0"
0&
0(
0'
0)
05
0V
09
0'!
0n
06
0W
0;
0(!
0o
0p
0)!
0<
0X
#95000
1"
1&
1(
1'
1)
15
1V
19
1'!
1n
16
1W
1;
1(!
1o
1p
1)!
1<
1X
1Z!
0[!
1T!
0U!
1O!
0P!
1H!
0I!
0|
0z
0+!
08!
05!
0?
0K
0Z
0h
0d
0{
1q
06!
1*!
0L
1=
0e
1Y
1|
1+!
1?
1Z
1}
1{
1,!
16!
1@
1L
1[
1e
0}
0,!
0@
0[
#100000
0"
0&
0(
0'
0)
05
0V
09
0'!
0n
06
0W
0;
0(!
0o
0p
0)!
0<
0X
#105000
1"
1&
1(
1'
1)
15
1V
19
1'!
1n
16
1W
1;
1(!
1o
1p
1)!
1<
1X
1[!
1U!
1P!
1I!
1z
18!
15!
1K
1h
1d
0q
0*!
0=
0Y
0|
0+!
0?
0Z
0{
06!
0L
0e
1}
1,!
1@
1[
#110000
0"
0&
0(
0'
0)
05
0V
09
0'!
0n
06
0W
0;
0(!
0o
0p
0)!
0<
0X
#115000
1"
1&
1(
1'
1)
15
1V
19
1'!
1n
16
1W
1;
1(!
1o
1p
1)!
1<
1X
1Y!
0Z!
0[!
0T!
0U!
1S!
0O!
0P!
1N!
0H!
0I!
1G!
1~
0#!
1|
0z
1+!
08!
05!
07!
1-!
0M
1?
0K
1A
1Z
0h
0d
0k
1\
0}
1{
1q
16!
1*!
0,!
1L
1=
0@
1e
1Y
0[
0r
0~
0-!
0/!
0A
0C
0\
0^
0!!
1}
0{
1,!
06!
0.!
1@
0L
0B
1[
0e
0]
1r
1/!
1C
1^
1s
1!!
1.!
10!
1B
1D
1]
1_
0s
00!
0D
0_
#120000
0"
0&
0(
0'
0)
05
0V
09
0'!
0n
06
0W
0;
0(!
0o
0p
0)!
0<
0X
#125000
1"
1&
1(
1'
1)
15
1V
19
1'!
1n
16
1W
1;
1(!
1o
1p
1)!
1<
1X
1[!
1U!
1P!
1I!
1#!
1z
18!
15!
1M
1K
1h
1d
0q
0*!
0=
0Y
1{
16!
1L
1e
#130000
0"
0&
0(
0'
0)
05
0V
09
0'!
0n
06
0W
0;
0(!
0o
0p
0)!
0<
0X
#135000
1"
1&
1(
1'
1)
15
1V
19
1'!
1n
16
1W
1;
1(!
1o
1p
1)!
1<
1X
1Z!
0[!
1T!
0U!
1O!
0P!
1H!
0I!
0|
0z
0+!
08!
05!
0?
0K
0Z
0h
0d
0{
1q
06!
1*!
0L
1=
0e
1Y
1~
1|
1-!
1+!
1A
1?
1\
1Z
0}
1{
0,!
19!
16!
0@
1L
0[
1l
1e
0r
0~
0/!
0-!
0C
0A
0^
0\
0!!
1}
0.!
1,!
0B
1@
0]
1[
1r
1/!
1C
1^
1s
1!!
10!
1.!
1D
1B
1_
1]
0s
00!
0D
0_
#140000
0"
0&
0(
0'
0)
05
0V
09
0'!
0n
06
0W
0;
0(!
0o
0p
0)!
0<
0X
#145000
1"
1(
1)
15
19
1n
16
1;
1o
1p
1<
1[!
1P!
1z
1K
0q
0=
0|
0?
0{
0L
1~
1A
0}
0@
0r
0C
0!!
0B
1s
1D
#150000
0"
0(
0)
05
09
0n
06
0;
0o
0p
0<
#155000
1"
1(
1)
15
19
1n
16
1;
1o
1p
1<
0X!
0Y!
0Z!
0[!
1W!
0O!
0P!
1L!
0M!
0N!
0"!
1r
0~
0#!
1|
0z
1t
0M
1?
0K
1E
0P
1C
0A
1!!
1}
1{
1q
0s
1L
1=
0D
1B
1@
0t
0E
1s
0!!
0}
0{
1u
0@
0L
1F
1D
0B
0u
0F
#160000
0"
0(
0)
05
09
0n
06
0;
0o
0p
0<
#165000
1"
1(
1)
15
19
1n
16
1;
1o
1p
1<
1[!
1P!
1#!
1z
1M
1K
0q
0=
1{
1L
#170000
0"
0(
0)
05
09
0n
06
0;
0o
0p
0<
#175000
1"
1(
1)
15
19
1n
16
1;
1o
1p
1<
1Z!
0[!
1O!
0P!
0|
0z
0?
0K
0{
1q
0L
1=
1|
1?
1}
1{
1@
1L
0}
0@
#180000
0"
0(
0)
05
09
0n
06
0;
0o
0p
0<
#185000
1"
1(
1)
15
19
1n
16
1;
1o
1p
1<
1[!
1P!
1z
1K
0q
0=
0|
0?
0{
0L
1}
1@
#190000
0"
0(
0)
05
09
0n
06
0;
0o
0p
0<
#195000
1"
1(
1)
15
19
1n
16
1;
1o
1p
1<
1Y!
0Z!
0[!
0O!
0P!
1N!
1"!
1~
0#!
1|
0z
0M
1?
0K
1P
1A
0}
1{
1q
1L
1=
0@
0~
0A
1!!
1}
0{
1@
0L
1B
0!!
0B
#200000
0"
0(
0)
05
09
0n
06
0;
0o
0p
0<
#205000
1"
1(
1)
15
19
1n
16
1;
1o
1p
1<
1[!
1P!
1#!
1z
1M
1K
0q
0=
1{
1L
#210000
0"
0(
0)
05
09
0n
06
0;
0o
0p
0<
#215000
1"
1(
1)
15
19
1n
16
1;
1o
1p
1<
1Z!
0[!
1O!
0P!
0|
0z
0?
0K
0{
1q
0L
1=
1~
1|
1A
1?
0}
1{
0@
1L
0~
0A
1!!
1}
1B
1@
0!!
0B
#220000
0"
0(
0)
05
09
0n
06
0;
0o
0p
0<
#225000
1"
1(
1)
15
19
1n
16
1;
1o
1p
1<
1[!
1P!
1z
1K
0q
0=
0|
0?
0{
0L
1~
1A
0}
0@
1!!
1B
#230000
0"
0(
0)
05
09
0n
06
0;
0o
0p
0<
#235000
1"
1(
1)
15
19
1n
16
1;
1o
1p
1<
1X!
0Y!
0Z!
0[!
0O!
0P!
1M!
0N!
0r
0~
0#!
1|
0z
0M
1?
0K
0C
0A
0!!
1}
1{
1q
1L
1=
0B
1@
1t
1r
1E
1C
0s
1!!
0}
0{
0@
0L
0D
1B
0t
0E
1u
1s
1F
1D
0u
0F
#240000
0"
0(
0)
05
09
0n
06
0;
0o
0p
0<
#245000
1"
1(
1)
15
19
1n
16
1;
1o
1p
1<
1[!
1P!
1#!
1z
1M
1K
0q
0=
1{
1L
#250000
0"
0(
0)
05
09
0n
06
0;
0o
0p
0<
#255000
1"
1(
1)
15
19
1n
16
1;
1o
1p
1<
1Z!
0[!
1O!
0P!
0|
0z
0?
0K
0{
1q
0L
1=
1|
1?
1}
1{
1@
1L
0}
0@
#260000
0"
0(
0)
05
09
0n
06
0;
0o
0p
0<
#265000
1"
1(
1)
15
19
1n
16
1;
1o
1p
1<
1[!
1P!
1z
1K
0q
0=
0|
0?
0{
0L
1}
1@
#270000
0"
0(
0)
05
09
0n
06
0;
0o
0p
0<
#275000
1"
1(
1)
15
19
1n
16
1;
1o
1p
1<
1Y!
0Z!
0[!
0O!
0P!
1N!
1~
0#!
1|
0z
0M
1?
0K
1A
0}
1{
1q
1L
1=
0@
0r
0~
0A
0C
0!!
1}
0{
1@
0L
0B
1t
1r
1C
1E
0s
1!!
1B
0D
0t
0E
1u
1s
1D
1F
0u
0F
#280000
0"
0(
0)
05
09
0n
06
0;
0o
0p
0<
#285000
1"
1(
1)
15
19
1n
16
1;
1o
1p
1<
1[!
1P!
1#!
1z
1M
1K
0q
0=
1{
1L
#290000
0"
0(
0)
05
09
0n
06
0;
0o
0p
0<
#295000
1"
1(
1)
15
19
1n
16
1;
1o
1p
1<
1Z!
0[!
1O!
0P!
0|
0z
0?
0K
0{
1q
0L
1=
1~
1|
1A
1?
0}
1{
0@
1L
0r
0~
0C
0A
0!!
1}
0B
1@
1t
1r
1E
1C
0s
1!!
0D
1B
0t
0E
1u
1s
1F
1D
0u
0F
#300000
0"
0(
0)
05
09
0n
06
0;
0o
0p
0<
#305000
1"
1(
1)
15
19
1n
16
1;
1o
1p
1<
1[!
1P!
1z
1K
0q
0=
0|
0?
0{
0L
1~
1A
0}
0@
0r
0C
0!!
0B
1t
1E
0s
0D
1u
1F
#310000
0"
0(
0)
05
09
0n
06
0;
0o
0p
0<
#315000
1"
1(
15
19
16
1;
1<
0O!
0P!
1K!
0L!
0M!
0N!
0M
1?
0K
0S
0G
0E
0P
1C
0A
1L
1=
0F
1D
1B
1@
1H
1G
1T
0@
0L
1F
0D
0B
1J
0H
0J
#320000
0"
0(
05
09
06
0;
0<
#325000
1"
15
16
#330000
0"
05
06
#335000
1"
15
16
#340000
0"
05
06
#345000
1"
15
16
#350000
0"
05
06
#355000
1"
15
16
#360000
0!
0"
0:
05
06
#365000
1"
15
16
1J!
1\!
1]!
1A!
1=!
1C!
1>!
#370000
0"
05
06
#375000
1"
15
16
1D!
1?!
14
13
1B!
1+
1,
0C!
1C!
#380000
0"
05
06
#385000
1"
15
16
#390000
0"
05
06
#395000
1"
15
16
#400000
0"
05
06
#405000
1"
15
16
#410000
0"
05
06
#415000
1"
15
16
#420000
0"
05
06
#425000
1"
15
16
#430000
1#
0"
1<!
05
06
0@!
0=!
0B!
0C!
#435000
1"
15
16
0D!
03
0+
#440000
0#
0"
0<!
05
06
1@!
1=!
#445000
1"
15
16
#450000
0"
05
06
#455000
1"
15
16
#460000
0"
05
06
#465000
1"
15
16
#470000
1!
0"
1:
05
06
0]!
0\!
0J!
0A!
0=!
#475000
1"
15
16
#480000
1&
1)
0"
1V
1n
05
06
1W
1o
1p
1X
0X!
0Y!
0Z!
0[!
1V!
0W!
1I!
0"!
1r
0~
0#!
1|
0z
0$!
0w
0t
1h
1d
1!!
1}
1{
1q
0u
1s
0Y
1x
1w
0Z
1%!
0s
0!!
0}
0{
1u
0l
0e
1y
0x
1\
0[
0y
0^
0]
1_
#485000
1"
15
16
#490000
0&
0)
0"
0V
0n
05
06
0W
0o
0p
0X
#495000
1"
15
16
#500000
0!
0"
0:
05
06
#505000
1"
15
16
1J!
1^!
1]!
1;!
1&!
1:!
1C!
0>!
#510000
0"
05
06
#515000
1"
15
16
1D!
0?!
04
13
1B!
1+
0,
0C!
1C!
#520000
0"
05
06
#525000
1"
15
16
#530000
0"
05
06
#535000
1"
15
16
#540000
1$
0"
1m
05
06
0@!
0&!
0B!
0:!
0C!
#545000
1"
15
16
0D!
03
0+
#550000
0$
0"
0m
05
06
1@!
1&!
1:!
#555000
1"
15
16
#560000
0"
05
06
#565000
1"
15
16
#570000
0"
05
06
#575000
1"
15
16
#580000
0"
05
06
#585000
1"
15
16
#590000
0"
05
06
#595000
1"
15
16
#600000
0"
05
06
#605000
1"
15
16
#610000
0"
05
06
#615000
1"
15
16
#620000
0"
05
06
#625000
1"
15
16
#630000
0"
05
06
#635000
1"
15
16
#640000
0"
05
06
#645000
1"
15
16
#650000
0"
05
06
#655000
1"
15
16
#660000
0"
05
06
#665000
1"
15
16
#670000
0"
05
06
#675000
1"
15
16
#680000
0"
05
06
#685000
1"
15
16
#690000
0"
05
06
#695000
1"
15
16
#700000
0"
05
06
#705000
1"
15
16
#710000
0"
05
06
#715000
1"
15
16
#720000
0"
05
06
#725000
1"
15
16
#730000
0"
05
06
#735000
1"
15
16
#740000
0"
05
06
#745000
1"
15
16
#750000
0"
05
06
#755000
1"
15
16
#760000
0"
05
06
#765000
1"
15
16
#770000
0"
05
06
#775000
1"
15
16
#780000
0"
05
06
#785000
1"
15
16
#790000
0"
05
06
#795000
1"
15
16
#800000
0"
05
06
#805000
1"
15
16
#810000
0"
05
06
#815000
1"
15
16
#820000
0"
05
06
#825000
1"
15
16
#830000
0"
05
06
#835000
1"
15
16
#840000
0"
05
06
#845000
1"
15
16
#850000
0"
05
06
#855000
1"
15
16
#860000
0"
05
06
#865000
1"
15
16
#870000
0"
05
06
#875000
1"
15
16
#880000
0"
05
06
#885000
1"
15
16
#890000
0"
05
06
#895000
1"
15
16
#900000
0"
05
06
#905000
1"
15
16
#910000
0"
05
06
#915000
1"
15
16
#920000
0"
05
06
#925000
1"
15
16
#930000
0"
05
06
#935000
1"
15
16
#940000
0"
05
06
#945000
1"
15
16
#950000
0"
05
06
#955000
1"
15
16
#960000
0"
05
06
#965000
1"
15
16
#970000
0"
05
06
#975000
1"
15
16
#980000
0"
05
06
#985000
1"
15
16
#990000
0"
05
06
#995000
1"
15
16
