Circuito_AutoWin/controleManual/simulation/qsim/controleManual.msim.vcd
$comment
	File created using the following command:
		vcd file controleManual.msim.vcd -direction
$end
$date
	Wed Jun 14 13:35:58 2023
$end
$version
	ModelSim Version 2020.1
$end
$timescale
	1ps
$end

$scope module controleManual_vlg_vec_tst $end
$var reg 1 ! BJ $end
$var reg 1 " BMO $end
$var reg 1 # clk $end
$var reg 1 $ FA $end
$var reg 1 % FF $end
$var wire 1 & M $end
$var wire 1 ' SM $end

$scope module i1 $end
$var wire 1 ( gnd $end
$var wire 1 ) vcc $end
$var wire 1 * unknown $end
$var tri1 1 + devclrn $end
$var tri1 1 , devpor $end
$var tri1 1 - devoe $end
$var wire 1 . BMO~input_o $end
$var wire 1 / M~output_o $end
$var wire 1 0 SM~output_o $end
$var wire 1 1 clk~input_o $end
$var wire 1 2 clk~inputclkctrl_outclk $end
$var wire 1 3 BJ~input_o $end
$var wire 1 4 FF~input_o $end
$var wire 1 5 FA~input_o $end
$var wire 1 6 FFsentidoMotor~0_combout $end
$var wire 1 7 FFsentidoMotor~1_combout $end
$var wire 1 8 FFsentidoMotor~q $end
$var wire 1 9 inst51~0_combout $end
$var wire 1 : inst51~1_combout $end
$var wire 1 ; FFMotor~q $end
$upscope $end
$upscope $end
$enddefinitions $end
#0
$dumpvars
0!
0"
0#
0$
0%
0&
0'
0(
1)
x*
1+
1,
1-
0.
0/
00
01
02
03
04
05
06
07
08
09
0:
0;
$end
#5000
1#
11
12
#10000
0#
01
02
#15000
1#
11
12
#20000
1!
0#
13
01
02
16
1:
17
#25000
1#
11
12
1;
18
10
1/
06
1&
1'
07
17
#30000
0#
01
02
#35000
1#
11
12
#40000
0#
01
02
#45000
1#
11
12
#50000
0#
01
02
#55000
1#
11
12
#60000
0#
01
02
#65000
1#
11
12
#70000
0#
01
02
#75000
1#
11
12
#80000
0#
01
02
#85000
1#
11
12
#90000
0#
01
02
#95000
1#
11
12
#100000
0#
01
02
#105000
1#
11
12
#110000
0#
01
02
#115000
1#
11
12
#120000
0#
01
02
#125000
1#
11
12
#130000
0#
01
02
#135000
1#
11
12
#140000
0#
01
02
#145000
1#
11
12
#150000
0#
01
02
#155000
1#
11
12
#160000
0#
01
02
#165000
1#
11
12
#170000
0#
01
02
#175000
1#
11
12
#180000
0#
01
02
#185000
1#
11
12
#190000
0#
01
02
#195000
1#
11
12
#200000
0#
01
02
#205000
1#
11
12
#210000
0#
01
02
#215000
1#
11
12
#220000
0#
01
02
#225000
1#
11
12
#230000
0#
01
02
#235000
1#
11
12
#240000
0#
01
02
#245000
1#
11
12
#250000
0#
01
02
#255000
1#
11
12
#260000
0#
01
02
#265000
1#
11
12
#270000
0#
01
02
#275000
1#
11
12
#280000
0#
01
02
#285000
1#
11
12
#290000
0#
01
02
#295000
1#
11
12
#300000
0#
01
02
#305000
1#
11
12
#310000
0!
0#
03
01
02
#315000
1#
11
12
#320000
0#
01
02
#325000
1#
11
12
#330000
0#
01
02
#335000
1#
11
12
#340000
0#
01
02
#345000
1#
11
12
#350000
0#
01
02
#355000
1#
11
12
#360000
0#
01
02
#365000
1#
11
12
#370000
0#
01
02
#375000
1#
11
12
#380000
0#
01
02
#385000
1#
11
12
#390000
0#
01
02
#395000
1#
11
12
#400000
0#
01
02
#405000
1#
11
12
#410000
0#
01
02
#415000
1#
11
12
#420000
0#
01
02
#425000
1#
11
12
#430000
0#
01
02
#435000
1#
11
12
#440000
0#
01
02
#445000
1#
11
12
#450000
0#
01
02
#455000
1#
11
12
#460000
0#
01
02
#465000
1#
11
12
#470000
0#
01
02
#475000
1#
11
12
#480000
0#
01
02
#485000
1#
11
12
#490000
0#
01
02
#495000
1#
11
12
#500000
0#
01
02
#505000
1#
11
12
#510000
0#
01
02
#515000
1#
11
12
#520000
0#
01
02
#525000
1#
11
12
#530000
0#
01
02
#535000
1#
11
12
#540000
0#
01
02
#545000
1#
11
12
#550000
0#
01
02
#555000
1#
11
12
#560000
0#
01
02
#565000
1#
11
12
#570000
0#
01
02
#575000
1#
11
12
#580000
0#
01
02
#585000
1#
11
12
#590000
0#
01
02
#595000
1#
11
12
#600000
0#
01
02
#605000
1#
11
12
#610000
0#
01
02
#615000
1#
11
12
#620000
0#
01
02
#625000
1#
11
12
#630000
0#
01
02
#635000
1#
11
12
#640000
0#
01
02
#645000
1#
11
12
#650000
0#
01
02
#655000
1#
11
12
#660000
0#
01
02
#665000
1#
11
12
#670000
0#
01
02
#675000
1#
11
12
#680000
0#
01
02
#685000
1#
11
12
#690000
0#
01
02
#695000
1#
11
12
#700000
0#
01
02
#705000
1#
11
12
#710000
0#
01
02
#715000
1#
11
12
#720000
0#
01
02
#725000
1#
11
12
#730000
0#
01
02
#735000
1#
11
12
#740000
0#
01
02
#745000
1#
11
12
#750000
0#
01
02
#755000
1#
11
12
#760000
0#
01
02
#765000
1#
11
12
#770000
0#
01
02
#775000
1#
11
12
#780000
0#
01
02
#785000
1#
11
12
#790000
0#
01
02
#795000
1#
11
12
#800000
0#
01
02
#805000
1#
11
12
#810000
0#
01
02
#815000
1#
11
12
#820000
0#
01
02
#825000
1#
11
12
#830000
0#
01
02
#835000
1#
11
12
#840000
0#
01
02
#845000
1#
11
12
#850000
0#
01
02
#855000
1#
11
12
#860000
0#
01
02
#865000
1#
11
12
#870000
0#
01
02
#875000
1#
11
12
#880000
0#
01
02
#885000
1#
11
12
#890000
0#
01
02
#895000
1#
11
12
#900000
0#
01
02
#905000
1#
11
12
#910000
0#
01
02
#915000
1#
11
12
#920000
0#
01
02
#925000
1#
11
12
#930000
0#
01
02
#935000
1#
11
12
#940000
0#
01
02
#945000
1#
11
12
#950000
0#
01
02
#955000
1#
11
12
#960000
0#
01
02
#965000
1#
11
12
#970000
0#
01
02
#975000
1#
11
12
#980000
0#
01
02
#985000
1#
11
12
#990000
0#
01
02
#995000
1#
11
12
